<?xml version="1.0"?>
<!DOCTYPE svg PUBLIC '-//W3C//DTD SVG 1.0//EN'
          'http://www.w3.org/TR/2001/REC-SVG-20010904/DTD/svg10.dtd'>
<svg xmlns:xlink="http://www.w3.org/1999/xlink" style="fill-opacity:1; color-rendering:auto; color-interpolation:auto; text-rendering:auto; stroke:black; stroke-linecap:square; stroke-miterlimit:10; shape-rendering:auto; stroke-opacity:1; fill:black; stroke-dasharray:none; font-weight:normal; stroke-width:1; font-family:'Dialog'; font-style:normal; stroke-linejoin:miter; font-size:12px; stroke-dashoffset:0; image-rendering:auto;" width="560" height="420" xmlns="http://www.w3.org/2000/svg"
><!--Generated by the Batik Graphics2D SVG Generator--><defs id="genericDefs"
  /><g
  ><defs id="defs1"
    ><clipPath clipPathUnits="userSpaceOnUse" id="clipPath1"
      ><path d="M0 0 L560 0 L560 420 L0 420 L0 0 Z"
      /></clipPath
      ><font horiz-adv-x="50.0" id="font1"
      ><font-face ascent="95.200005" descent="21.3" units-per-em="100" style="font-style:normal; font-family:Helvetica Neue; font-weight:normal;"
        /><missing-glyph horiz-adv-x="50.0" d="M40.9 66.6 L10.2 66.6 L10.2 4.7 L40.9 4.7 ZM46 71.2 L46 0.1 L5.1 0.1 L5.1 71.2 Z"
        /><glyph unicode="1" horiz-adv-x="55.6" d="M35.6 0 L35.6 70.9 L29.1 70.9 Q28.4 66.9 26.5 64.3 Q24.6 61.7 21.85 60.2 Q19.1 58.7 15.7 58.15 Q12.3 57.6 8.7 57.6 L8.7 50.8 L27.1 50.8 L27.1 0 Z"
        /><glyph unicode="2" horiz-adv-x="55.6" d="M4.4 45.8 L12.9 45.8 Q12.8 49 13.55 52.15 Q14.3 55.3 16 57.8 Q17.7 60.3 20.35 61.85 Q23 63.4 26.7 63.4 Q29.5 63.4 32 62.5 Q34.5 61.6 36.35 59.9 Q38.2 58.2 39.3 55.85 Q40.4 53.5 40.4 50.6 Q40.4 46.9 39.25 44.1 Q38.1 41.3 35.85 38.9 Q33.6 36.5 30.2 34.15 Q26.8 31.8 22.3 29 Q18.6 26.8 15.2 24.3 Q11.8 21.8 9.1 18.5 Q6.4 15.2 4.65 10.75 Q2.9 6.3 2.4 0 L48.7 0 L48.7 7.5 L12.3 7.5 Q12.9 10.8 14.85 13.35 Q16.8 15.9 19.55 18.1 Q22.3 20.3 25.6 22.25 Q28.9 24.2 32.2 26.2 Q35.5 28.3 38.6 30.6 Q41.7 32.9 44.1 35.75 Q46.5 38.6 47.95 42.2 Q49.4 45.8 49.4 50.5 Q49.4 55.5 47.65 59.3 Q45.9 63.1 42.9 65.65 Q39.9 68.2 35.85 69.55 Q31.8 70.9 27.2 70.9 Q21.6 70.9 17.2 69 Q12.8 67.1 9.85 63.75 Q6.9 60.4 5.5 55.8 Q4.1 51.2 4.4 45.8 Z"
        /><glyph unicode="3" horiz-adv-x="55.6" d="M21.8 40.5 L21.8 33.3 Q24.2 33.6 26.9 33.6 Q30.1 33.6 32.85 32.75 Q35.6 31.9 37.6 30.15 Q39.6 28.4 40.8 25.85 Q42 23.3 42 20 Q42 16.8 40.75 14.25 Q39.5 11.7 37.4 9.95 Q35.3 8.2 32.5 7.25 Q29.7 6.3 26.6 6.3 Q19.3 6.3 15.5 10.65 Q11.7 15 11.5 21.9 L3 21.9 Q2.9 16.4 4.55 12.1 Q6.2 7.8 9.3 4.85 Q12.4 1.9 16.8 0.4 Q21.2 -1.1 26.6 -1.1 Q31.6 -1.1 36.05 0.25 Q40.5 1.6 43.8 4.3 Q47.1 7 49.05 11.05 Q51 15.1 51 20.4 Q51 26.8 47.85 31.5 Q44.7 36.2 38.2 37.6 L38.2 37.8 Q42.4 39.7 45.2 43.4 Q48 47.1 48 51.9 Q48 56.8 46.35 60.4 Q44.7 64 41.8 66.3 Q38.9 68.6 34.95 69.75 Q31 70.9 26.4 70.9 Q21.1 70.9 17.05 69.2 Q13 67.5 10.3 64.5 Q7.6 61.5 6.15 57.3 Q4.7 53.1 4.5 48 L13 48 Q13 51.1 13.8 53.9 Q14.6 56.7 16.25 58.8 Q17.9 60.9 20.45 62.15 Q23 63.4 26.4 63.4 Q31.8 63.4 35.4 60.55 Q39 57.7 39 52 Q39 49.2 37.9 47 Q36.8 44.8 34.95 43.35 Q33.1 41.9 30.65 41.15 Q28.2 40.4 25.5 40.4 L23.7 40.4 Q23.2 40.4 22.7 40.4 Q22.3 40.4 21.8 40.5 Z"
        /><glyph unicode="4" horiz-adv-x="55.6" d="M33.9 24.1 L10.1 24.1 L33.7 58.8 L33.9 58.8 ZM41.9 24.1 L41.9 70.9 L35.1 70.9 L2.8 24.8 L2.8 16.6 L33.9 16.6 L33.9 0 L41.9 0 L41.9 16.6 L51.5 16.6 L51.5 24.1 Z"
        /><glyph unicode="5" horiz-adv-x="55.6" d="M47 62.2 L47 69.7 L12 69.7 L5.4 32.9 L12.7 32.5 Q15.2 35.5 18.45 37.35 Q21.7 39.2 25.9 39.2 Q29.5 39.2 32.45 38 Q35.4 36.8 37.5 34.65 Q39.6 32.5 40.75 29.55 Q41.9 26.6 41.9 23.1 Q41.9 18.9 40.7 15.75 Q39.5 12.6 37.45 10.5 Q35.4 8.4 32.65 7.35 Q29.9 6.3 26.9 6.3 Q23.7 6.3 21.05 7.25 Q18.4 8.2 16.45 9.95 Q14.5 11.7 13.35 14.05 Q12.2 16.4 12 19.1 L3.5 19.1 Q3.6 14.3 5.4 10.5 Q7.2 6.7 10.3 4.15 Q13.4 1.6 17.45 0.25 Q21.5 -1.1 26.1 -1.1 Q32.3 -1.1 36.95 0.85 Q41.6 2.8 44.7 6.1 Q47.8 9.4 49.35 13.65 Q50.9 17.9 50.9 22.4 Q50.9 28.5 49.1 33.05 Q47.3 37.6 44.2 40.65 Q41.1 43.7 36.9 45.2 Q32.7 46.7 28 46.7 Q24.4 46.7 20.75 45.45 Q17.1 44.2 14.8 41.6 L14.6 41.8 L18.4 62.2 Z"
        /><glyph unicode="s" horiz-adv-x="50.0" d="M11.6 16.3 L3.1 16.3 Q3.3 11.5 5.1 8.15 Q6.9 4.8 9.9 2.75 Q12.9 0.7 16.8 -0.2 Q20.7 -1.1 25 -1.1 Q28.9 -1.1 32.85 -0.35 Q36.8 0.4 39.95 2.3 Q43.1 4.2 45.05 7.3 Q47 10.4 47 15.1 Q47 18.8 45.55 21.3 Q44.1 23.8 41.75 25.45 Q39.4 27.1 36.35 28.1 Q33.3 29.1 30.1 29.8 Q27.1 30.5 24.1 31.15 Q21.1 31.8 18.7 32.75 Q16.3 33.7 14.75 35.15 Q13.2 36.6 13.2 38.8 Q13.2 40.8 14.2 42.05 Q15.2 43.3 16.8 44.05 Q18.4 44.8 20.35 45.1 Q22.3 45.4 24.2 45.4 Q26.3 45.4 28.35 44.95 Q30.4 44.5 32.1 43.5 Q33.8 42.5 34.9 40.85 Q36 39.2 36.2 36.7 L44.7 36.7 Q44.4 41.4 42.7 44.55 Q41 47.7 38.15 49.55 Q35.3 51.4 31.6 52.15 Q27.9 52.9 23.5 52.9 Q20.1 52.9 16.65 52.05 Q13.2 51.2 10.45 49.45 Q7.7 47.7 5.95 44.9 Q4.2 42.1 4.2 38.2 Q4.2 33.2 6.7 30.4 Q9.2 27.6 12.95 26.05 Q16.7 24.5 21.1 23.65 Q25.5 22.8 29.25 21.75 Q33 20.7 35.5 19 Q38 17.3 38 14 Q38 11.6 36.8 10.05 Q35.6 8.5 33.75 7.7 Q31.9 6.9 29.7 6.6 Q27.5 6.3 25.5 6.3 Q22.9 6.3 20.45 6.8 Q18 7.3 16.05 8.45 Q14.1 9.6 12.9 11.55 Q11.7 13.5 11.6 16.3 Z"
        /><glyph unicode="c" horiz-adv-x="53.7" d="M41.5 35.1 L50.3 35.1 Q49.8 39.7 47.9 43.05 Q46 46.4 43.05 48.6 Q40.1 50.8 36.25 51.85 Q32.4 52.9 28 52.9 Q21.9 52.9 17.3 50.75 Q12.7 48.6 9.65 44.85 Q6.6 41.1 5.1 36.05 Q3.6 31 3.6 25.2 Q3.6 19.4 5.15 14.55 Q6.7 9.7 9.75 6.2 Q12.8 2.7 17.35 0.8 Q21.9 -1.1 27.8 -1.1 Q37.7 -1.1 43.45 4.1 Q49.2 9.3 50.6 18.9 L41.9 18.9 Q41.1 12.9 37.55 9.6 Q34 6.3 27.7 6.3 Q23.7 6.3 20.8 7.9 Q17.9 9.5 16.1 12.15 Q14.3 14.8 13.45 18.2 Q12.6 21.6 12.6 25.2 Q12.6 29.1 13.4 32.75 Q14.2 36.4 16.05 39.2 Q17.9 42 21 43.7 Q24.1 45.4 28.7 45.4 Q34.1 45.4 37.3 42.7 Q40.5 40 41.5 35.1 Z"
        /><glyph unicode="i" horiz-adv-x="22.2" d="M15.4 61 L15.4 71.4 L6.9 71.4 L6.9 61 ZM6.9 51.7 L6.9 0 L15.4 0 L15.4 51.7 Z"
        /><glyph unicode="l" horiz-adv-x="22.2" d="M6.9 71.4 L6.9 0 L15.4 0 L15.4 71.4 Z"
        /><glyph unicode="S" horiz-adv-x="64.8" d="M49.1 50.5 L58.1 50.5 Q57.9 56.4 55.85 60.65 Q53.8 64.9 50.25 67.7 Q46.7 70.5 42 71.8 Q37.3 73.1 31.8 73.1 Q26.9 73.1 22.25 71.85 Q17.6 70.6 13.95 68.05 Q10.3 65.5 8.1 61.55 Q5.9 57.6 5.9 52.2 Q5.9 47.3 7.85 44.05 Q9.8 40.8 13.05 38.75 Q16.3 36.7 20.4 35.45 Q24.5 34.2 28.75 33.25 Q33 32.3 37.1 31.4 Q41.2 30.5 44.45 29.05 Q47.7 27.6 49.65 25.3 Q51.6 23 51.6 19.3 Q51.6 15.4 50 12.9 Q48.4 10.4 45.8 8.95 Q43.2 7.5 39.95 6.9 Q36.7 6.3 33.5 6.3 Q29.5 6.3 25.7 7.3 Q21.9 8.3 19.05 10.4 Q16.2 12.5 14.45 15.75 Q12.7 19 12.7 23.5 L3.7 23.5 Q3.7 17 6.05 12.25 Q8.4 7.5 12.45 4.45 Q16.5 1.4 21.85 -0.1 Q27.2 -1.6 33.2 -1.6 Q38.1 -1.6 43.05 -0.45 Q48 0.7 52 3.25 Q56 5.8 58.55 9.85 Q61.1 13.9 61.1 19.6 Q61.1 24.9 59.15 28.4 Q57.2 31.9 53.95 34.2 Q50.7 36.5 46.6 37.85 Q42.5 39.2 38.25 40.2 Q34 41.2 29.9 42.05 Q25.8 42.9 22.55 44.2 Q19.3 45.5 17.35 47.55 Q15.4 49.6 15.4 52.9 Q15.4 56.4 16.75 58.75 Q18.1 61.1 20.35 62.5 Q22.6 63.9 25.5 64.5 Q28.4 65.1 31.4 65.1 Q38.8 65.1 43.55 61.65 Q48.3 58.2 49.1 50.5 Z"
        /><glyph unicode="f" horiz-adv-x="29.6" d="M9.9 44.2 L9.9 0 L18.4 0 L18.4 44.2 L28.4 44.2 L28.4 51.7 L18.4 51.7 L18.4 58.9 Q18.4 62.3 20.1 63.5 Q21.8 64.7 24.9 64.7 Q26 64.7 27.3 64.55 Q28.6 64.4 29.7 64 L29.7 71.4 Q28.5 71.8 26.95 72 Q25.4 72.2 24.2 72.2 Q17.2 72.2 13.55 68.95 Q9.9 65.7 9.9 59.4 L9.9 51.7 L1.2 51.7 L1.2 44.2 Z"
        /><glyph unicode="o" horiz-adv-x="57.4" d="M12.6 25.8 Q12.6 30.5 13.85 34.15 Q15.1 37.8 17.3 40.3 Q19.5 42.8 22.45 44.1 Q25.4 45.4 28.7 45.4 Q32 45.4 34.95 44.1 Q37.9 42.8 40.1 40.3 Q42.3 37.8 43.55 34.15 Q44.8 30.5 44.8 25.8 Q44.8 21.1 43.55 17.45 Q42.3 13.8 40.1 11.35 Q37.9 8.9 34.95 7.6 Q32 6.3 28.7 6.3 Q25.4 6.3 22.45 7.6 Q19.5 8.9 17.3 11.35 Q15.1 13.8 13.85 17.45 Q12.6 21.1 12.6 25.8 ZM3.6 25.8 Q3.6 20.1 5.2 15.2 Q6.8 10.3 10 6.65 Q13.2 3 17.9 0.95 Q22.6 -1.1 28.7 -1.1 Q34.9 -1.1 39.55 0.95 Q44.2 3 47.4 6.65 Q50.6 10.3 52.2 15.2 Q53.8 20.1 53.8 25.8 Q53.8 31.5 52.2 36.45 Q50.6 41.4 47.4 45.05 Q44.2 48.7 39.55 50.8 Q34.9 52.9 28.7 52.9 Q22.6 52.9 17.9 50.8 Q13.2 48.7 10 45.05 Q6.8 41.4 5.2 36.45 Q3.6 31.5 3.6 25.8 Z"
        /><glyph unicode=" " horiz-adv-x="27.8" d=""
        /><glyph unicode="r" horiz-adv-x="33.3" d="M6.1 51.7 L6.1 0 L14.6 0 L14.6 23 Q14.6 28 15.6 31.85 Q16.6 35.7 18.8 38.4 Q21 41.1 24.6 42.5 Q28.2 43.9 33.3 43.9 L33.3 52.9 Q26.4 53.1 21.9 50.1 Q17.4 47.1 14.3 40.8 L14.1 40.8 L14.1 51.7 Z"
        /><glyph unicode="e" horiz-adv-x="53.7" d="M42.3 30.8 L12.6 30.8 Q12.8 33.8 13.9 36.45 Q15 39.1 16.9 41.1 Q18.8 43.1 21.45 44.25 Q24.1 45.4 27.4 45.4 Q30.6 45.4 33.25 44.25 Q35.9 43.1 37.85 41.15 Q39.8 39.2 40.95 36.5 Q42.1 33.8 42.3 30.8 ZM50.5 16.4 L42.1 16.4 Q41 11.3 37.55 8.8 Q34.1 6.3 28.7 6.3 Q24.5 6.3 21.4 7.7 Q18.3 9.1 16.3 11.45 Q14.3 13.8 13.4 16.85 Q12.5 19.9 12.6 23.3 L51.3 23.3 Q51.5 28 50.45 33.2 Q49.4 38.4 46.65 42.8 Q43.9 47.2 39.35 50.05 Q34.8 52.9 27.9 52.9 Q22.6 52.9 18.15 50.9 Q13.7 48.9 10.45 45.3 Q7.2 41.7 5.4 36.8 Q3.6 31.9 3.6 26 Q3.8 20.1 5.35 15.1 Q6.9 10.1 10 6.5 Q13.1 2.9 17.65 0.9 Q22.2 -1.1 28.4 -1.1 Q37.2 -1.1 43 3.3 Q48.8 7.7 50.5 16.4 Z"
        /><glyph unicode="b" horiz-adv-x="59.3" d="M6.7 71.4 L6.7 0 L15.2 0 L15.2 6.9 L15.4 6.9 Q16.8 4.6 18.85 3.05 Q20.9 1.5 23.2 0.6 Q25.5 -0.3 27.85 -0.7 Q30.2 -1.1 32.1 -1.1 Q38 -1.1 42.45 1 Q46.9 3.1 49.85 6.75 Q52.8 10.4 54.25 15.3 Q55.7 20.2 55.7 25.7 Q55.7 31.2 54.2 36.1 Q52.7 41 49.75 44.75 Q46.8 48.5 42.35 50.7 Q37.9 52.9 31.9 52.9 Q26.5 52.9 22 50.95 Q17.5 49 15.4 44.7 L15.2 44.7 L15.2 71.4 ZM46.7 26.3 Q46.7 22.5 45.9 18.9 Q45.1 15.3 43.3 12.5 Q41.5 9.7 38.55 8 Q35.6 6.3 31.2 6.3 Q26.8 6.3 23.7 7.95 Q20.6 9.6 18.65 12.3 Q16.7 15 15.8 18.55 Q14.9 22.1 14.9 25.9 Q14.9 29.5 15.75 33 Q16.6 36.5 18.5 39.25 Q20.4 42 23.4 43.7 Q26.4 45.4 30.7 45.4 Q34.8 45.4 37.85 43.8 Q40.9 42.2 42.85 39.5 Q44.8 36.8 45.75 33.35 Q46.7 29.9 46.7 26.3 Z"
        /><glyph unicode="m" horiz-adv-x="85.3" d="M6.4 51.7 L6.4 0 L14.9 0 L14.9 32.2 Q14.9 33.7 15.65 35.95 Q16.4 38.2 18.05 40.3 Q19.7 42.4 22.35 43.9 Q25 45.4 28.7 45.4 Q31.6 45.4 33.45 44.55 Q35.3 43.7 36.4 42.15 Q37.5 40.6 37.95 38.5 Q38.4 36.4 38.4 33.9 L38.4 0 L46.9 0 L46.9 32.2 Q46.9 38.2 50.5 41.8 Q54.1 45.4 60.4 45.4 Q63.5 45.4 65.45 44.5 Q67.4 43.6 68.5 42.05 Q69.6 40.5 70 38.4 Q70.4 36.3 70.4 33.9 L70.4 0 L78.9 0 L78.9 37.9 Q78.9 41.9 77.65 44.75 Q76.4 47.6 74.15 49.4 Q71.9 51.2 68.75 52.05 Q65.6 52.9 61.7 52.9 Q56.6 52.9 52.35 50.6 Q48.1 48.3 45.5 44.1 Q43.9 48.9 40 50.9 Q36.1 52.9 31.3 52.9 Q20.4 52.9 14.6 44.1 L14.4 44.1 L14.4 51.7 Z"
        /><glyph unicode="u" horiz-adv-x="55.6" d="M49.2 0 L49.2 51.7 L40.7 51.7 L40.7 22.5 Q40.7 19 39.75 16.05 Q38.8 13.1 36.9 10.9 Q35 8.7 32.15 7.5 Q29.3 6.3 25.4 6.3 Q20.5 6.3 17.7 9.1 Q14.9 11.9 14.9 16.7 L14.9 51.7 L6.4 51.7 L6.4 17.7 Q6.4 13.5 7.25 10.05 Q8.1 6.6 10.2 4.1 Q12.3 1.6 15.7 0.25 Q19.1 -1.1 24.2 -1.1 Q29.9 -1.1 34.1 1.15 Q38.3 3.4 41 8.2 L41.2 8.2 L41.2 0 Z"
        /><glyph unicode="N" horiz-adv-x="72.2" d="M7.7 71.4 L7.7 0 L16.7 0 L16.7 57.3 L16.9 57.3 L54.2 0 L64.6 0 L64.6 71.4 L55.6 71.4 L55.6 13.5 L55.4 13.5 L17.8 71.4 Z"
        /><glyph unicode="0" horiz-adv-x="55.6" d="M13.2 34.9 Q13.2 37.5 13.25 40.65 Q13.3 43.8 13.75 46.95 Q14.2 50.1 15.05 53.1 Q15.9 56.1 17.55 58.35 Q19.2 60.6 21.7 62 Q24.2 63.4 27.8 63.4 Q31.4 63.4 33.9 62 Q36.4 60.6 38.05 58.35 Q39.7 56.1 40.55 53.1 Q41.4 50.1 41.85 46.95 Q42.3 43.8 42.35 40.65 Q42.4 37.5 42.4 34.9 Q42.4 30.9 42.15 25.95 Q41.9 21 40.55 16.65 Q39.2 12.3 36.2 9.3 Q33.2 6.3 27.8 6.3 Q22.4 6.3 19.4 9.3 Q16.4 12.3 15.05 16.65 Q13.7 21 13.45 25.95 Q13.2 30.9 13.2 34.9 ZM4.2 34.8 Q4.2 30.9 4.4 26.7 Q4.6 22.5 5.4 18.5 Q6.2 14.5 7.7 10.95 Q9.2 7.4 11.8 4.7 Q14.4 2 18.35 0.45 Q22.3 -1.1 27.8 -1.1 Q33.4 -1.1 37.3 0.45 Q41.2 2 43.8 4.7 Q46.4 7.4 47.9 10.95 Q49.4 14.5 50.2 18.5 Q51 22.5 51.2 26.7 Q51.4 30.9 51.4 34.8 Q51.4 38.7 51.2 42.9 Q51 47.1 50.2 51.1 Q49.4 55.1 47.9 58.7 Q46.4 62.3 43.8 65 Q41.2 67.7 37.25 69.3 Q33.3 70.9 27.8 70.9 Q22.3 70.9 18.35 69.3 Q14.4 67.7 11.8 65 Q9.2 62.3 7.7 58.7 Q6.2 55.1 5.4 51.1 Q4.6 47.1 4.4 42.9 Q4.2 38.7 4.2 34.8 Z"
        /><glyph unicode=")" horiz-adv-x="25.9" d="M-0.9 -19.7 L5.5 -19.7 Q13.3 -9.4 17.25 2.55 Q21.2 14.5 21.2 26.3 Q21.2 32.9 20.1 38.9 Q19 44.9 16.95 50.65 Q14.9 56.4 12 61.95 Q9.1 67.5 5.5 73.1 L-0.9 73.1 Q6.1 61.6 9.15 50.25 Q12.2 38.9 12.2 26.3 Q12.2 14.1 9.2 2.85 Q6.2 -8.4 -0.9 -19.7 Z"
        /><glyph unicode="C" horiz-adv-x="72.2" d="M58 49.9 L67.5 49.9 Q66.7 55.6 64.1 59.95 Q61.5 64.3 57.6 67.2 Q53.7 70.1 48.7 71.6 Q43.7 73.1 38.1 73.1 Q29.9 73.1 23.55 70.15 Q17.2 67.2 12.95 62.1 Q8.7 57 6.5 50.15 Q4.3 43.3 4.3 35.5 Q4.3 27.7 6.35 20.9 Q8.4 14.1 12.5 9.1 Q16.6 4.1 22.8 1.25 Q29 -1.6 37.3 -1.6 Q51 -1.6 58.9 5.9 Q66.8 13.4 68.2 26.9 L58.7 26.9 Q58.4 22.5 56.9 18.7 Q55.4 14.9 52.75 12.15 Q50.1 9.4 46.45 7.85 Q42.8 6.3 38.1 6.3 Q31.7 6.3 27.1 8.7 Q22.5 11.1 19.55 15.15 Q16.6 19.2 15.2 24.65 Q13.8 30.1 13.8 36.2 Q13.8 41.8 15.2 47 Q16.6 52.2 19.55 56.25 Q22.5 60.3 27.05 62.7 Q31.6 65.1 38 65.1 Q45.5 65.1 50.95 61.3 Q56.4 57.5 58 49.9 Z"
        /><glyph unicode="°" horiz-adv-x="40.0" d="M10.6 56.5 Q10.6 58.3 11.25 59.95 Q11.9 61.6 13.1 62.95 Q14.3 64.3 16.05 65.1 Q17.8 65.9 20 65.9 Q22.2 65.9 23.95 65.1 Q25.7 64.3 26.9 62.95 Q28.1 61.6 28.75 59.95 Q29.4 58.3 29.4 56.5 Q29.4 54.7 28.75 53.05 Q28.1 51.4 26.9 50.05 Q25.7 48.7 23.95 47.9 Q22.2 47.1 20 47.1 Q17.8 47.1 16.05 47.9 Q14.3 48.7 13.1 50.05 Q11.9 51.4 11.25 53.05 Q10.6 54.7 10.6 56.5 ZM5.6 56.5 Q5.6 53.5 6.7 50.85 Q7.8 48.2 9.75 46.25 Q11.7 44.3 14.35 43.2 Q17 42.1 20 42.1 Q23 42.1 25.6 43.2 Q28.2 44.3 30.15 46.25 Q32.1 48.2 33.25 50.85 Q34.4 53.5 34.4 56.5 Q34.4 59.5 33.25 62.1 Q32.1 64.7 30.15 66.65 Q28.2 68.6 25.6 69.75 Q23 70.9 20 70.9 Q17 70.9 14.35 69.75 Q11.7 68.6 9.75 66.65 Q7.8 64.7 6.7 62.1 Q5.6 59.5 5.6 56.5 Z"
        /><glyph unicode="(" horiz-adv-x="25.9" d="M20.4 -19.7 L26.9 -19.7 Q19.8 -8.2 16.75 3.1 Q13.7 14.4 13.7 27 Q13.7 39.3 16.7 50.5 Q19.7 61.7 26.9 73.1 L20.4 73.1 Q12.6 62.8 8.65 50.8 Q4.7 38.8 4.7 27 Q4.7 20.4 5.8 14.4 Q6.9 8.4 8.95 2.7 Q11 -3 13.9 -8.55 Q16.8 -14.1 20.4 -19.7 Z"
        /><glyph unicode="E" horiz-adv-x="61.1" d="M7.8 71.4 L7.8 0 L57.4 0 L57.4 8 L17.3 8 L17.3 32.7 L54.4 32.7 L54.4 40.7 L17.3 40.7 L17.3 63.4 L57.1 63.4 L57.1 71.4 Z"
        /><glyph unicode="x" horiz-adv-x="51.8" d="M20.3 27.2 L0.9 0 L11.2 0 L25.6 21.4 L40 0 L50.9 0 L30.9 27.9 L48.7 51.7 L38.5 51.7 L25.6 33.6 L13.2 51.7 L2.3 51.7 Z"
        /><glyph unicode="a" horiz-adv-x="53.7" d="M52.2 0.2 Q50 -1.1 46.1 -1.1 Q42.8 -1.1 40.85 0.75 Q38.9 2.6 38.9 6.8 Q35.4 2.6 30.75 0.75 Q26.1 -1.1 20.7 -1.1 Q17.2 -1.1 14.05 -0.3 Q10.9 0.5 8.6 2.2 Q6.3 3.9 4.95 6.65 Q3.6 9.4 3.6 13.3 Q3.6 17.7 5.1 20.5 Q6.6 23.3 9.05 25.05 Q11.5 26.8 14.65 27.7 Q17.8 28.6 21.1 29.2 Q24.6 29.9 27.75 30.25 Q30.9 30.6 33.3 31.25 Q35.7 31.9 37.1 33.15 Q38.5 34.4 38.5 36.8 Q38.5 39.6 37.45 41.3 Q36.4 43 34.75 43.9 Q33.1 44.8 31.05 45.1 Q29 45.4 27 45.4 Q21.6 45.4 18 43.35 Q14.4 41.3 14.1 35.6 L5.6 35.6 Q5.8 40.4 7.6 43.7 Q9.4 47 12.4 49.05 Q15.4 51.1 19.25 52 Q23.1 52.9 27.5 52.9 Q31 52.9 34.45 52.4 Q37.9 51.9 40.7 50.35 Q43.5 48.8 45.2 46 Q46.9 43.2 46.9 38.7 L46.9 12.1 Q46.9 9.1 47.25 7.7 Q47.6 6.3 49.6 6.3 Q50.7 6.3 52.2 6.8 ZM38.4 26.7 Q36.8 25.5 34.2 24.95 Q31.6 24.4 28.75 24.05 Q25.9 23.7 23 23.25 Q20.1 22.8 17.8 21.8 Q15.5 20.8 14.05 18.95 Q12.6 17.1 12.6 13.9 Q12.6 11.8 13.45 10.35 Q14.3 8.9 15.65 8 Q17 7.1 18.8 6.7 Q20.6 6.3 22.6 6.3 Q26.8 6.3 29.8 7.45 Q32.8 8.6 34.7 10.35 Q36.6 12.1 37.5 14.15 Q38.4 16.2 38.4 18 Z"
        /><glyph unicode="M" horiz-adv-x="87.1" d="M8 71.4 L8 0 L17 0 L17 59.4 L17.2 59.4 L39.5 0 L47.6 0 L69.9 59.4 L70.1 59.4 L70.1 0 L79.1 0 L79.1 71.4 L66.1 71.4 L43.5 11.4 L21 71.4 Z"
        /><glyph unicode="t" horiz-adv-x="31.5" d="M18.2 51.7 L18.2 67.2 L9.7 67.2 L9.7 51.7 L0.9 51.7 L0.9 44.2 L9.7 44.2 L9.7 11.3 Q9.7 7.7 10.4 5.5 Q11.1 3.3 12.55 2.1 Q14 0.9 16.35 0.45 Q18.7 0 22 0 L28.5 0 L28.5 7.5 L24.6 7.5 Q22.6 7.5 21.35 7.65 Q20.1 7.8 19.4 8.3 Q18.7 8.8 18.45 9.7 Q18.2 10.6 18.2 12.1 L18.2 44.2 L28.5 44.2 L28.5 51.7 Z"
        /><glyph unicode="v" horiz-adv-x="50.0" d="M29.7 0 L48.6 51.7 L39.7 51.7 L25.6 8.6 L25.4 8.6 L10.9 51.7 L1.4 51.7 L20.6 0 Z"
        /><glyph unicode="n" horiz-adv-x="55.6" d="M6.4 51.7 L6.4 0 L14.9 0 L14.9 29.2 Q14.9 32.7 15.85 35.65 Q16.8 38.6 18.7 40.8 Q20.6 43 23.45 44.2 Q26.3 45.4 30.2 45.4 Q35.1 45.4 37.9 42.6 Q40.7 39.8 40.7 35 L40.7 0 L49.2 0 L49.2 34 Q49.2 38.2 48.35 41.65 Q47.5 45.1 45.4 47.6 Q43.3 50.1 39.9 51.5 Q36.5 52.9 31.4 52.9 Q19.9 52.9 14.6 43.5 L14.4 43.5 L14.4 51.7 Z"
        /><glyph unicode="h" horiz-adv-x="55.6" d="M6.4 71.4 L6.4 0 L14.9 0 L14.9 29.2 Q14.9 32.7 15.85 35.65 Q16.8 38.6 18.7 40.8 Q20.6 43 23.45 44.2 Q26.3 45.4 30.2 45.4 Q35.1 45.4 37.9 42.6 Q40.7 39.8 40.7 35 L40.7 0 L49.2 0 L49.2 34 Q49.2 38.2 48.35 41.65 Q47.5 45.1 45.4 47.6 Q43.3 50.1 39.9 51.5 Q36.5 52.9 31.4 52.9 Q29.1 52.9 26.65 52.4 Q24.2 51.9 21.95 50.85 Q19.7 49.8 17.9 48.15 Q16.1 46.5 15.1 44.1 L14.9 44.1 L14.9 71.4 Z"
        /><glyph unicode="I" horiz-adv-x="25.9" d="M8.2 71.4 L8.2 0 L17.7 0 L17.7 71.4 Z"
      /></font
    ></defs
    ><g style="fill:white; stroke:white;"
    ><rect x="0" y="0" width="560" style="clip-path:url(#clipPath1); stroke:none;" height="420"
    /></g
    ><g style="fill:white; text-rendering:optimizeSpeed; color-rendering:optimizeSpeed; image-rendering:optimizeSpeed; shape-rendering:crispEdges; stroke:white; color-interpolation:sRGB;"
    ><rect x="0" width="560" height="420" y="0" style="stroke:none;"
      /><path style="stroke:none;" d="M73 352 L507 352 L507 31.5 L73 31.5 Z"
    /></g
    ><g style="fill:rgb(38,38,38); text-rendering:geometricPrecision; image-rendering:optimizeQuality; color-rendering:optimizeQuality; stroke-linejoin:round; stroke:rgb(38,38,38); color-interpolation:linearRGB; stroke-width:0.5;"
    ><line y2="352" style="fill:none;" x1="73" x2="507" y1="352"
      /><line y2="31.5" style="fill:none;" x1="73" x2="507" y1="31.5"
      /><line y2="347.66" style="fill:none;" x1="73" x2="73" y1="352"
      /><line y2="347.66" style="fill:none;" x1="181.5" x2="181.5" y1="352"
      /><line y2="347.66" style="fill:none;" x1="290" x2="290" y1="352"
      /><line y2="347.66" style="fill:none;" x1="398.5" x2="398.5" y1="352"
      /><line y2="347.66" style="fill:none;" x1="507" x2="507" y1="352"
      /><line y2="35.84" style="fill:none;" x1="73" x2="73" y1="31.5"
      /><line y2="35.84" style="fill:none;" x1="181.5" x2="181.5" y1="31.5"
      /><line y2="35.84" style="fill:none;" x1="290" x2="290" y1="31.5"
      /><line y2="35.84" style="fill:none;" x1="398.5" x2="398.5" y1="31.5"
      /><line y2="35.84" style="fill:none;" x1="507" x2="507" y1="31.5"
    /></g
    ><g transform="translate(73,358.8)" style="font-size:24px; fill:rgb(38,38,38); text-rendering:geometricPrecision; image-rendering:optimizeQuality; color-rendering:optimizeQuality; font-family:'Helvetica Neue'; stroke:rgb(38,38,38); color-interpolation:linearRGB;"
    ><text x="-7" xml:space="preserve" y="23" style="stroke:none;"
      >1</text
    ></g
    ><g transform="translate(181.5,358.8)" style="font-size:24px; fill:rgb(38,38,38); text-rendering:geometricPrecision; image-rendering:optimizeQuality; color-rendering:optimizeQuality; font-family:'Helvetica Neue'; stroke:rgb(38,38,38); color-interpolation:linearRGB;"
    ><text x="-7" xml:space="preserve" y="23" style="stroke:none;"
      >2</text
    ></g
    ><g transform="translate(290,358.8)" style="font-size:24px; fill:rgb(38,38,38); text-rendering:geometricPrecision; image-rendering:optimizeQuality; color-rendering:optimizeQuality; font-family:'Helvetica Neue'; stroke:rgb(38,38,38); color-interpolation:linearRGB;"
    ><text x="-7" xml:space="preserve" y="23" style="stroke:none;"
      >3</text
    ></g
    ><g transform="translate(398.5,358.8)" style="font-size:24px; fill:rgb(38,38,38); text-rendering:geometricPrecision; image-rendering:optimizeQuality; color-rendering:optimizeQuality; font-family:'Helvetica Neue'; stroke:rgb(38,38,38); color-interpolation:linearRGB;"
    ><text x="-7" xml:space="preserve" y="23" style="stroke:none;"
      >4</text
    ></g
    ><g transform="translate(507,358.8)" style="font-size:24px; fill:rgb(38,38,38); text-rendering:geometricPrecision; image-rendering:optimizeQuality; color-rendering:optimizeQuality; font-family:'Helvetica Neue'; stroke:rgb(38,38,38); color-interpolation:linearRGB;"
    ><text x="-7" xml:space="preserve" y="23" style="stroke:none;"
      >5</text
    ></g
    ><g transform="translate(290.0002,388.5)" style="font-size:26.4px; fill:rgb(38,38,38); text-rendering:geometricPrecision; image-rendering:optimizeQuality; color-rendering:optimizeQuality; font-family:'Helvetica Neue'; stroke:rgb(38,38,38); color-interpolation:linearRGB;"
    ><text x="-101.5" xml:space="preserve" y="26" style="stroke:none;"
      >Number of Slices</text
    ></g
    ><g style="fill:rgb(38,38,38); text-rendering:geometricPrecision; image-rendering:optimizeQuality; color-rendering:optimizeQuality; stroke-linejoin:round; stroke:rgb(38,38,38); color-interpolation:linearRGB; stroke-width:0.5;"
    ><line y2="31.5" style="fill:none;" x1="73" x2="73" y1="352"
      /><line y2="31.5" style="fill:none;" x1="507" x2="507" y1="352"
      /><line y2="352" style="fill:none;" x1="73" x2="77.34" y1="352"
      /><line y2="266.4969" style="fill:none;" x1="73" x2="77.34" y1="266.4969"
      /><line y2="180.9938" style="fill:none;" x1="73" x2="77.34" y1="180.9938"
      /><line y2="95.4906" style="fill:none;" x1="73" x2="77.34" y1="95.4906"
      /><line y2="352" style="fill:none;" x1="507" x2="502.66" y1="352"
      /><line y2="266.4969" style="fill:none;" x1="507" x2="502.66" y1="266.4969"
      /><line y2="180.9938" style="fill:none;" x1="507" x2="502.66" y1="180.9938"
      /><line y2="95.4906" style="fill:none;" x1="507" x2="502.66" y1="95.4906"
    /></g
    ><g transform="translate(66.2,352)" style="font-size:24px; fill:rgb(38,38,38); text-rendering:geometricPrecision; image-rendering:optimizeQuality; color-rendering:optimizeQuality; font-family:'Helvetica Neue'; stroke:rgb(38,38,38); color-interpolation:linearRGB;"
    ><text x="-14" xml:space="preserve" y="8.5" style="stroke:none;"
      >0</text
    ></g
    ><g transform="translate(66.2,266.4969)" style="font-size:24px; fill:rgb(38,38,38); text-rendering:geometricPrecision; image-rendering:optimizeQuality; color-rendering:optimizeQuality; font-family:'Helvetica Neue'; stroke:rgb(38,38,38); color-interpolation:linearRGB;"
    ><text x="-14" xml:space="preserve" y="8.5" style="stroke:none;"
      >5</text
    ></g
    ><g transform="translate(66.2,180.9938)" style="font-size:24px; fill:rgb(38,38,38); text-rendering:geometricPrecision; image-rendering:optimizeQuality; color-rendering:optimizeQuality; font-family:'Helvetica Neue'; stroke:rgb(38,38,38); color-interpolation:linearRGB;"
    ><text x="-27" xml:space="preserve" y="8.5" style="stroke:none;"
      >10</text
    ></g
    ><g transform="translate(66.2,95.4906)" style="font-size:24px; fill:rgb(38,38,38); text-rendering:geometricPrecision; image-rendering:optimizeQuality; color-rendering:optimizeQuality; font-family:'Helvetica Neue'; stroke:rgb(38,38,38); color-interpolation:linearRGB;"
    ><text x="-27" xml:space="preserve" y="8.5" style="stroke:none;"
      >15</text
    ></g
    ><g transform="translate(36.2,191.7498) rotate(-90)" style="font-size:26.4px; fill:rgb(38,38,38); text-rendering:geometricPrecision; image-rendering:optimizeQuality; color-rendering:optimizeQuality; font-family:'Helvetica Neue'; stroke:rgb(38,38,38); color-interpolation:linearRGB;"
    ><text x="-83.5" xml:space="preserve" y="-6" style="stroke:none;"
      >Max Error (°C)</text
    ></g
    ><g style="stroke-linecap:butt; fill:rgb(0,114,189); text-rendering:geometricPrecision; image-rendering:optimizeQuality; color-rendering:optimizeQuality; stroke-linejoin:round; stroke:rgb(0,114,189); color-interpolation:linearRGB; stroke-width:4;"
    ><path d="M73 344.5369 L181.5 215.8088 L290 55.4966 L398.5 46.3764 L507 38.9496" style="fill:none; fill-rule:evenodd;"
      /><path d="M73 344.45 L181.5 304.4728 L290 258.5883 L398.5 163.8597 L507 31.5" style="fill:none; fill-rule:evenodd; stroke:rgb(217,83,25);"
    /></g
    ><g transform="translate(118,54.5)" style="font-size:21.6px; text-rendering:geometricPrecision; color-rendering:optimizeQuality; image-rendering:optimizeQuality; font-family:'Helvetica Neue'; color-interpolation:linearRGB;"
    ><text x="0" xml:space="preserve" y="8" style="stroke:none;"
      >Conventional</text
    ></g
    ><g style="stroke-linecap:butt; fill:rgb(0,114,189); text-rendering:geometricPrecision; image-rendering:optimizeQuality; color-rendering:optimizeQuality; stroke-linejoin:round; stroke:rgb(0,114,189); color-interpolation:linearRGB; stroke-width:4;"
    ><line y2="54.5" style="fill:none;" x1="85" x2="115" y1="54.5"
    /></g
    ><g transform="translate(118,81)" style="font-size:21.6px; text-rendering:geometricPrecision; color-rendering:optimizeQuality; image-rendering:optimizeQuality; font-family:'Helvetica Neue'; color-interpolation:linearRGB;"
    ><text x="0" xml:space="preserve" y="8" style="stroke:none;"
      >Incoherent</text
    ></g
    ><g style="stroke-linecap:butt; fill:rgb(217,83,25); text-rendering:geometricPrecision; image-rendering:optimizeQuality; color-rendering:optimizeQuality; stroke-linejoin:round; stroke:rgb(217,83,25); color-interpolation:linearRGB; stroke-width:4;"
    ><line y2="81" style="fill:none;" x1="85" x2="115" y1="81"
    /></g
  ></g
></svg
>
